<?xml version="1.0" encoding="UTF-8" standalone="no"?>
<svg
   viewBox="0 0 329.9996 180"
   preserveAspectRatio="xMinYMin meet"
   version="1.1"
   id="svg5"
   sodipodi:docname="doublefourteen-logo-dark.svg"
   inkscape:version="1.1 (c4e8f9ed74, 2021-05-24)"
   xmlns:inkscape="http://www.inkscape.org/namespaces/inkscape"
   xmlns:sodipodi="http://sodipodi.sourceforge.net/DTD/sodipodi-0.dtd"
   xmlns="http://www.w3.org/2000/svg"
   xmlns:svg="http://www.w3.org/2000/svg">
  <sodipodi:namedview
     id="namedview7"
     pagecolor="#c1c1c1"
     bordercolor="#eeeeee"
     borderopacity="1"
     inkscape:pageshadow="0"
     inkscape:pageopacity="0"
     inkscape:pagecheckerboard="0"
     inkscape:document-units="mm"
     showgrid="true"
     inkscape:zoom="2.0367199"
     inkscape:cx="258.74937"
     inkscape:cy="157.36086"
     inkscape:window-width="1050"
     inkscape:window-height="1001"
     inkscape:window-x="870"
     inkscape:window-y="0"
     inkscape:window-maximized="0"
     inkscape:current-layer="layer1"
     showguides="false">
    <inkscape:grid
       type="xygrid"
       id="grid2554"
       originx="-10"
       originy="-49.999993" />
  </sodipodi:namedview>
  <defs
     id="defs2">
    <inkscape:path-effect
       effect="fill_between_many"
       method="originald"
       linkedpaths="#rect31,0,1|#g1476,0,1|#g831,0,1|#path2606,0,1|#g2614,0,1"
       id="path-effect2893"
       is_visible="true"
       lpeversion="0"
       join="true"
       close="true"
       autoreverse="true"
       applied="false" />
  </defs>
  <g
     inkscape:label="Livello 1"
     inkscape:groupmode="layer"
     id="layer1"
     transform="translate(-10,-49.999999)">
    <path
       inkscape:original-d="M 0,0"
       inkscape:path-effect="#path-effect2893"
       d="M 0,0"
       id="path2895" />
    <g
       id="g30">
      <path
         id="rect31"
         style="fill:#1c2224;fill-opacity:1;stroke-width:0.246992;paint-order:fill markers stroke"
         d="M 10,110 35,80 V 200 H 10 Z"
         sodipodi:nodetypes="ccccc" />
      <g
         id="g1476"
         style="fill:#1c2224;fill-opacity:1"
         transform="translate(10.000221)">
        <g
           id="g1480"
           style="fill:#1c2224;fill-opacity:1">
          <g
             id="g2792"
             style="fill:#1c2224;fill-opacity:1">
            <path
               id="rect911"
               style="fill:#1c2224;fill-opacity:1;stroke-width:0.264999;paint-order:fill markers stroke"
               d="M 79.999779,80 H 110 L 59.999779,200 h -30 z"
               sodipodi:nodetypes="ccccc" />
            <path
               id="rect1354"
               style="fill:#1c2224;fill-opacity:1;stroke-width:0.264999;paint-order:fill markers stroke"
               d="M 84.999779,190 H 110 v 40 H 84.999779 Z"
               sodipodi:nodetypes="ccccc" />
          </g>
        </g>
      </g>
    </g>
    <g
       id="g38">
      <path
         id="path4756"
         style="fill:#1c2224;fill-opacity:1;stroke-width:0.246992;paint-order:fill markers stroke"
         d="M 150,110 175.00001,80 V 200 H 150 Z"
         sodipodi:nodetypes="ccccc" />
      <g
         id="g4766"
         style="fill:#1c2224;fill-opacity:1"
         transform="translate(150.00023)">
        <g
           id="g4764"
           style="fill:#1c2224;fill-opacity:1">
          <g
             id="g4762"
             style="fill:#1c2224;fill-opacity:1">
            <path
               id="path4758"
               style="fill:#1c2224;fill-opacity:1;stroke-width:0.264999;paint-order:fill markers stroke"
               d="M 79.99977,80 H 110 L 59.99977,200 H 29.999779 Z"
               sodipodi:nodetypes="ccccc" />
            <path
               id="path4760"
               style="fill:#1c2224;fill-opacity:1;stroke-width:0.264999;paint-order:fill markers stroke"
               d="M 84.999779,190 H 110 v 40 H 84.999779 Z"
               sodipodi:nodetypes="ccccc" />
          </g>
        </g>
      </g>
    </g>
    <g
       id="g831"
       transform="matrix(0.97539005,0,0,0.97539005,88.743554,-24.606556)"
       style="fill:#535d6c;fill-opacity:1">
      <path
         id="path4548"
         style="fill:#535d6c;fill-opacity:1;stroke-width:0.476198;paint-order:fill markers stroke"
         d="m 226.54388,76.488944 c -8.49961,0.0046 -16.62581,3.460019 -22.48344,9.560509 l 0.0863,19.039167 h 12.74917 c 1.08192,-4.60106 5.23423,-8.125154 10.02525,-8.137771 5.69898,-1.85e-4 10.31883,4.553711 10.31918,10.171841 -7e-5,5.61831 -4.62029,10.17277 -10.31945,10.17258 -4.09567,-0.007 -8.38623,-1.72488 -10.02498,-5.42518 -3.93798,0.0365 -15.96437,0 -21.70072,0 2.73019,14.5445 16.41344,26.10115 31.34874,26.13271 17.14925,-1.3e-4 31.05142,-13.77054 31.05154,-30.75725 -4.8e-4,-16.986451 -13.90255,-30.756474 -31.05154,-30.7566 z"
         sodipodi:nodetypes="sccccccccccss" />
    </g>
    <path
       id="rect9243"
       style="fill:#6f7c91;fill-opacity:1;stroke-width:0.265045;paint-order:fill markers stroke"
       d="m 313.41205,120 25.00005,2.5e-4 L 313.41205,150 Z"
       sodipodi:nodetypes="cccc" />
  </g>
</svg>
