<?xml version="1.0" encoding="UTF-8" standalone="no"?>
<svg
   xmlns:dc="http://purl.org/dc/elements/1.1/"
   xmlns:cc="http://creativecommons.org/ns#"
   xmlns:rdf="http://www.w3.org/1999/02/22-rdf-syntax-ns#"
   xmlns:svg="http://www.w3.org/2000/svg"
   xmlns="http://www.w3.org/2000/svg"
   xmlns:sodipodi="http://sodipodi.sourceforge.net/DTD/sodipodi-0.dtd"
   xmlns:inkscape="http://www.inkscape.org/namespaces/inkscape"
   width="127.99994mm"
   height="127.99994mm"
   viewBox="0 0 127.99994 127.99994"
   version="1.1"
   id="svg8"
   inkscape:version="1.0.1 (3bc2e813f5, 2020-09-07)"
   sodipodi:docname="favicon.svg">
  <defs
     id="defs2">
    <rect
       x="9.005331"
       y="9.1077509"
       width="41.574905"
       height="31.786575"
       id="rect50" />
    <rect
       x="9.005331"
       y="9.1077509"
       width="41.574905"
       height="31.786575"
       id="rect50-3" />
    <rect
       x="9.005331"
       y="9.1077509"
       width="41.574905"
       height="31.786575"
       id="rect881" />
  </defs>
  <sodipodi:namedview
     id="base"
     pagecolor="#ffffff"
     bordercolor="#666666"
     borderopacity="1.0"
     inkscape:pageopacity="0.0"
     inkscape:pageshadow="2"
     inkscape:zoom="0.63777852"
     inkscape:cx="-199.25441"
     inkscape:cy="278.8347"
     inkscape:document-units="mm"
     inkscape:current-layer="layer3"
     inkscape:document-rotation="0"
     showgrid="false"
     inkscape:object-nodes="true"
     inkscape:window-width="1920"
     inkscape:window-height="1013"
     inkscape:window-x="0"
     inkscape:window-y="0"
     inkscape:window-maximized="1"
     inkscape:snap-text-baseline="false"
     fit-margin-top="0"
     fit-margin-left="0"
     fit-margin-right="0"
     fit-margin-bottom="0" />
  <metadata
     id="metadata5">
    <rdf:RDF>
      <cc:Work
         rdf:about="">
        <dc:format>image/svg+xml</dc:format>
        <dc:type
           rdf:resource="http://purl.org/dc/dcmitype/StillImage" />
        <dc:title></dc:title>
      </cc:Work>
    </rdf:RDF>
  </metadata>
  <g
     inkscape:groupmode="layer"
     id="layer2"
     inkscape:label="Sfondo"
     style="display:inline">
    <path
       style="fill:none;stroke-width:0;stroke-miterlimit:4;stroke-dasharray:none"
       d="M 41.072968,463.95393 C 32.173393,461.17119 23.658185,453.60304 18.84129,444.19483 l -2.844526,-5.55584 V 239.63894 40.638886 l 2.750075,-5.594452 c 5.566773,-11.324432 16.690323,-19.405201 29.202069,-21.214013 9.349383,-1.351633 379.372032,-1.252085 387.732272,0.104312 16.18683,2.626214 28.44754,14.588494 31.41711,30.652419 0.60729,3.285055 0.87171,77.898948 0.70445,198.769508 l -0.26779,193.51025 -4.04061,7.91328 c -4.71053,9.22529 -11.14119,15.13031 -20.14632,18.49955 l -5.68836,2.12829 -196.18423,-0.0676 C 83.039702,465.28588 44.479545,465.01909 41.072968,463.95393 Z"
       id="path167"
       transform="scale(0.26458333)" />
    <path
       id="rect109-1"
       style="display:inline;fill:#40517d;fill-opacity:1;stroke-width:0.265;stroke-miterlimit:4;stroke-dasharray:none"
       d="M 9.999907,0 C 4.459907,0 0,4.459907 0,9.999907 V 118.00003 c 0,5.54 4.459907,9.99991 9.999907,9.99991 H 118.00003 c 5.54,0 9.99991,-4.45991 9.99991,-9.99991 V 9.999907 C 127.99994,4.459907 123.54003,0 118.00003,0 Z"
       sodipodi:nodetypes="sssssssss" />
  </g>
  <g
     inkscape:label="Border"
     inkscape:groupmode="layer"
     id="layer1"
     style="display:none">
    <path
       id="rect109"
       style="stroke-width:0.264583"
       d="M 9.9999062,0 C 4.4599067,0 0,4.4599068 0,9.9999063 V 118.00003 c 0,5.54 4.4599067,9.99991 9.9999062,9.99991 H 118.00003 c 5.54,0 9.99991,-4.45991 9.99991,-9.99991 V 9.9999063 C 127.99994,4.4599068 123.54003,0 118.00003,0 Z M 12.831775,3.3920411 H 114.94802 c 5.54,0 8.94209,3.4020897 8.94209,8.9420899 V 114.45037 c 0,5.54 -2.87292,8.9421 -8.41292,8.9421 H 10.715109 c -5.5400007,0 -6.8254239,-3.4021 -6.8254239,-8.9421 V 12.334131 c 0,-5.5400002 3.4020898,-8.9420899 8.9420899,-8.9420899 z"
       sodipodi:nodetypes="ssssssssssssssssss" />
  </g>
  <g
     inkscape:groupmode="layer"
     id="layer3"
     inkscape:label="Text">
    <text
       xml:space="preserve"
       style="font-style:normal;font-variant:normal;font-weight:bold;font-stretch:normal;font-size:109.302px;line-height:1.25;font-family:'Proxima Nova Alt Condensed';-inkscape-font-specification:'Proxima Nova Alt Condensed,  Bold';font-variant-ligatures:normal;font-variant-caps:normal;font-variant-numeric:normal;font-variant-east-asian:normal;display:inline;fill:#d5f8ff;fill-opacity:1;stroke-width:2.73302;stroke-miterlimit:4;stroke-dasharray:none"
       x="26.724163"
       y="116.00568"
       id="text28"
       transform="scale(1.0474729,0.95467862)"><tspan
         sodipodi:role="line"
         id="tspan26"
         x="26.724163"
         y="116.00568"
         style="font-style:normal;font-variant:normal;font-weight:bold;font-stretch:normal;font-size:109.302px;font-family:'Proxima Nova Alt Condensed';-inkscape-font-specification:'Proxima Nova Alt Condensed,  Bold';font-variant-ligatures:normal;font-variant-caps:normal;font-variant-numeric:normal;font-variant-east-asian:normal;fill:#d5f8ff;fill-opacity:1;stroke-width:2.73302;stroke-miterlimit:4;stroke-dasharray:none">Si</tspan></text>
    <text
       xml:space="preserve"
       id="text48"
       style="font-style:normal;font-variant:normal;font-weight:bold;font-stretch:normal;font-size:10.5833px;line-height:1.25;font-family:'Proxima Nova Alt';-inkscape-font-specification:'Proxima Nova Alt Bold';font-variant-ligatures:normal;font-variant-caps:normal;font-variant-numeric:normal;font-variant-east-asian:normal;white-space:pre;shape-inside:url(#rect50-3);display:inline;fill:#d5f8ff;fill-opacity:1;"
       transform="matrix(3.896444,0,0,3.9665333,-29.18386,-37.205039)"><tspan
         x="9.0058594"
         y="18.791141"><tspan
           style="font-style:normal;font-variant:normal;font-weight:bold;font-stretch:normal;font-size:10.5833px;font-family:'Proxima Nova Alt Extra Condensed';-inkscape-font-specification:'Proxima Nova Alt Extra Condensed,  Bold';font-variant-ligatures:normal;font-variant-caps:normal;font-variant-numeric:normal;font-variant-east-asian:normal;fill:#d5f8ff;fill-opacity:1">14</tspan></tspan></text>
  </g>
</svg>
